[gd_scene load_steps=11 format=2]

[ext_resource path="res://scenes/tileset/tileset.tres" type="TileSet" id=1]
[ext_resource path="res://scenes/entities/goal.tscn" type="PackedScene" id=2]
[ext_resource path="res://scenes/entities/spike.tscn" type="PackedScene" id=3]
[ext_resource path="res://scenes/entities/deadly_spike.tscn" type="PackedScene" id=4]
[ext_resource path="res://scenes/entities/torch.tscn" type="PackedScene" id=5]
[ext_resource path="res://scenes/entities/coin.tscn" type="PackedScene" id=6]
[ext_resource path="res://scenes/entities/goblin_solider.tscn" type="PackedScene" id=7]
[ext_resource path="res://scenes/entities/goblin_archer.tscn" type="PackedScene" id=8]
[ext_resource path="res://scenes/entities/player.tscn" type="PackedScene" id=9]
[ext_resource path="res://scripts/particles_emitter.gd" type="Script" id=10]

[node name="main" type="Node" index="0"]

_sections_unfolded = [ "Transform" ]

[node name="background" type="TileMap" parent="." index="0"]

scale = Vector2( 8, 8 )
mode = 0
tile_set = ExtResource( 1 )
cell_size = Vector2( 8, 8 )
cell_quadrant_size = 16
cell_custom_transform = Transform2D( 1, 0, 0, 1, 0, 0 )
cell_half_offset = 2
cell_tile_origin = 0
cell_y_sort = false
cell_clip_uv = false
collision_use_kinematic = false
collision_friction = 1.0
collision_bounce = 0.0
collision_layer = 1
collision_mask = 1
occluder_light_mask = 1
format = 1
tile_data = PoolIntArray( -1114116, 8, 0, -1114115, 5, 0, -1114114, 5, 0, -1114113, 5, 0, -1179648, 5, 0, -1179647, 5, 0, -1179646, 5, 0, -1179645, 5, 0, -1179644, 5, 0, -1179643, 5, 0, -1179642, 5, 0, -1179641, 5, 0, -1179640, 5, 0, -1179639, 5, 0, -1179638, 5, 0, -1179637, 5, 0, -1179636, 5, 0, -1179635, 5, 0, -1179634, 5, 0, -1179633, 5, 0, -1179632, 5, 0, -1179631, 5, 0, -1179630, 5, 0, -1179629, 5, 0, -1179628, 9, 0, -1048580, 3, 0, -1048579, 14, 0, -1048578, 14, 0, -1048577, 14, 0, -1114112, 14, 0, -1114111, 14, 0, -1114110, 14, 0, -1114109, 14, 0, -1114108, 14, 0, -1114107, 14, 0, -1114106, 14, 0, -1114105, 13, 0, -1114104, 13, 0, -1114103, 13, 0, -1114102, 13, 0, -1114101, 13, 0, -1114100, 13, 0, -1114099, 13, 0, -1114098, 14, 0, -1114097, 14, 0, -1114096, 14, 0, -1114095, 14, 0, -1114094, 13, 0, -1114093, 13, 0, -1114092, 7, 0, -983044, 3, 0, -983043, 14, 0, -983042, 14, 0, -983041, 14, 0, -1048576, 14, 0, -1048575, 14, 0, -1048574, 14, 0, -1048573, 14, 0, -1048572, 14, 0, -1048571, 14, 0, -1048570, 14, 0, -1048569, 14, 0, -1048568, 14, 0, -1048567, 14, 0, -1048566, 14, 0, -1048565, 14, 0, -1048564, 14, 0, -1048563, 14, 0, -1048562, 13, 0, -1048561, 13, 0, -1048560, 13, 0, -1048559, 20, 0, -917508, 3, 0, -917507, 14, 0, -917506, 14, 0, -917505, 14, 0, -983040, 14, 0, -983039, 14, 0, -983038, 14, 0, -983037, 14, 0, -983036, 14, 0, -983035, 14, 0, -983034, 14, 0, -983033, 14, 0, -983032, 14, 0, -983031, 14, 0, -983030, 14, 0, -983029, 14, 0, -983028, 14, 0, -983027, 14, 0, -983026, 14, 0, -983025, 14, 0, -983024, 14, 0, -983023, 14, 0, -983022, 21, 0, -983021, 14, 0, -851971, 14, 0, -851970, 14, 0, -851969, 14, 0, -917504, 14, 0, -917503, 14, 0, -917502, 14, 0, -917501, 14, 0, -917500, 14, 0, -917499, 14, 0, -917498, 14, 0, -917497, 14, 0, -917496, 14, 0, -917495, 14, 0, -917494, 14, 0, -917493, 14, 0, -917492, 14, 0, -917491, 14, 0, -917490, 14, 0, -917489, 14, 0, -917488, 14, 0, -917487, 14, 0, -917486, 21, 0, -917485, 14, 0, -786435, 14, 0, -786434, 14, 0, -786433, 14, 0, -851968, 14, 0, -851967, 14, 0, -851966, 14, 0, -851965, 14, 0, -851964, 14, 0, -851963, 14, 0, -851962, 14, 0, -851961, 14, 0, -851960, 14, 0, -851959, 14, 0, -851958, 14, 0, -851957, 14, 0, -851956, 14, 0, -851955, 14, 0, -851954, 14, 0, -851953, 14, 0, -851952, 14, 0, -851951, 14, 0, -851950, 22, 0, -851949, 14, 0, -720899, 14, 0, -720898, 14, 0, -720897, 14, 0, -786432, 14, 0, -786431, 14, 0, -786430, 14, 0, -786429, 14, 0, -786428, 14, 0, -786427, 14, 0, -786426, 14, 0, -786425, 14, 0, -786424, 14, 0, -786423, 14, 0, -786422, 14, 0, -786421, 14, 0, -786420, 14, 0, -786419, 14, 0, -786418, 14, 0, -786417, 14, 0, -786416, 14, 0, -786415, 14, 0, -786414, 14, 0, -786413, 14, 0, -786412, 14, 0, -786411, 14, 0, -786410, 14, 0, -786409, 14, 0, -786408, 14, 0, -786407, 14, 0, -786406, 14, 0, -655363, 14, 0, -655362, 14, 0, -655361, 14, 0, -720896, 14, 0, -720895, 14, 0, -720894, 14, 0, -720893, 14, 0, -720892, 14, 0, -720891, 14, 0, -720890, 14, 0, -720889, 46, 0, -720888, 46, 0, -720887, 46, 0, -720886, 14, 0, -720885, 14, 0, -720884, 14, 0, -720883, 14, 0, -720882, 14, 0, -720881, 14, 0, -720880, 14, 0, -720879, 14, 0, -720878, 14, 0, -720877, 14, 0, -720876, 14, 0, -720875, 14, 0, -720874, 13, 0, -720873, 14, 0, -720872, 14, 0, -720871, 14, 0, -720870, 14, 0, -589827, 13, 0, -589826, 13, 0, -589825, 13, 0, -655360, 13, 0, -655359, 14, 0, -655358, 14, 0, -655357, 14, 0, -655356, 14, 0, -655355, 14, 0, -655354, 14, 0, -655353, 46, 0, -655352, 46, 0, -655351, 46, 0, -655350, 14, 0, -655349, 14, 0, -655348, 14, 0, -655347, 14, 0, -655346, 13, 0, -655345, 14, 0, -655344, 14, 0, -655343, 14, 0, -655342, 13, 0, -655341, 14, 0, -655340, 14, 0, -655339, 14, 0, -655338, 14, 0, -655337, 14, 0, -655336, 14, 0, -655335, 13, 0, -655334, 14, 0, -524291, 13, 0, -524290, 13, 0, -524289, 13, 0, -589824, 13, 0, -589823, 14, 0, -589822, 14, 0, -589821, 14, 0, -589820, 14, 0, -589819, 14, 0, -589818, 14, 0, -589817, 46, 0, -589816, 46, 0, -589815, 46, 0, -589814, 14, 0, -589813, 14, 0, -589812, 14, 0, -589811, 14, 0, -589810, 14, 0, -589809, 14, 0, -589808, 14, 0, -589807, 14, 0, -589806, 14, 0, -589805, 14, 0, -589804, 14, 0, -589803, 14, 0, -589802, 14, 0, -589801, 13, 0, -589800, 13, 0, -589799, 14, 0, -589798, 14, 0, -458755, 13, 0, -458754, 13, 0, -458753, 13, 0, -524288, 13, 0, -524287, 14, 0, -524286, 14, 0, -524285, 14, 0, -524284, 14, 0, -524283, 14, 0, -524282, 14, 0, -524281, 14, 0, -524280, 14, 0, -524279, 14, 0, -524278, 14, 0, -524277, 14, 0, -524276, 14, 0, -524275, 14, 0, -524274, 14, 0, -524273, 14, 0, -524272, 14, 0, -524271, 14, 0, -524270, 14, 0, -524269, 14, 0, -393227, 8, 0, -393226, 5, 0, -393225, 5, 0, -393224, 5, 0, -393223, 5, 0, -393222, 5, 0, -393221, 5, 0, -393220, 13, 0, -393219, 13, 0, -393218, 13, 0, -393217, 13, 0, -458752, 13, 0, -458751, 14, 0, -458750, 14, 0, -458749, 14, 0, -458748, 14, 0, -458747, 14, 0, -458746, 14, 0, -458745, 14, 0, -458744, 14, 0, -458743, 14, 0, -458742, 14, 0, -458741, 14, 0, -458740, 14, 0, -458739, 14, 0, -458738, 14, 0, -458737, 14, 0, -458736, 14, 0, -458735, 14, 0, -458734, 14, 0, -458733, 14, 0, -327691, 3, 0, -327690, 13, 0, -327689, 13, 0, -327688, 13, 0, -327687, 13, 0, -327686, 13, 0, -327685, 14, 0, -327684, 14, 0, -327683, 14, 0, -327682, 14, 0, -327681, 13, 0, -393216, 13, 0, -393215, 14, 0, -393214, 14, 0, -393213, 14, 0, -393212, 14, 0, -393211, 14, 0, -393210, 14, 0, -393209, 14, 0, -393208, 14, 0, -393207, 14, 0, -393206, 14, 0, -393205, 14, 0, -393204, 14, 0, -393203, 14, 0, -393202, 14, 0, -393201, 14, 0, -393200, 14, 0, -393199, 14, 0, -393198, 14, 0, -393197, 13, 0, -262155, 3, 0, -262154, 13, 0, -262153, 13, 0, -262152, 13, 0, -262151, 13, 0, -262150, 3, 0, -262149, 13, 0, -262148, 13, 0, -262147, 13, 0, -262146, 13, 0, -262145, 13, 0, -327680, 13, 0, -327679, 13, 0, -327678, 14, 0, -327677, 14, 0, -327676, 46, 0, -327675, 46, 0, -327674, 14, 0, -327673, 14, 0, -327672, 14, 0, -327671, 14, 0, -327670, 14, 0, -327669, 14, 0, -327668, 14, 0, -327667, 14, 0, -327666, 14, 0, -327665, 14, 0, -327664, 14, 0, -327663, 14, 0, -327662, 14, 0, -327661, 14, 0, -196619, 3, 0, -196618, 13, 0, -196617, 13, 0, -196616, 13, 0, -196615, 13, 0, -196614, 3, 0, -196613, 14, 0, -196612, 14, 0, -196611, 14, 0, -196610, 14, 0, -196609, 13, 0, -262144, 13, 0, -262143, 13, 0, -262142, 14, 0, -262141, 14, 0, -262140, 46, 0, -262139, 46, 0, -262138, 14, 0, -262137, 14, 0, -262136, 14, 0, -262135, 14, 0, -262134, 13, 0, -262133, 14, 0, -262132, 13, 0, -262131, 14, 0, -262130, 14, 0, -262129, 14, 0, -262128, 13, 0, -262127, 14, 0, -262126, 14, 0, -262125, 14, 0, -131083, 3, 0, -131082, 28, 0, -131081, 30, 0, -131080, 13, 0, -131079, 13, 0, -131078, 3, 0, -131077, 13, 0, -131076, 13, 0, -131075, 13, 0, -131074, 13, 0, -131073, 13, 0, -196608, 13, 0, -196607, 13, 0, -196606, 13, 0, -196605, 13, 0, -196604, 13, 0, -196603, 13, 0, -196602, 14, 0, -196601, 14, 0, -196600, 13, 0, -196599, 14, 0, -196598, 14, 0, -196597, 14, 0, -196596, 14, 0, -196595, 14, 0, -196594, 14, 0, -196593, 13, 0, -196592, 13, 0, -196591, 13, 0, -196590, 13, 0, -196589, 14, 0, -65547, 3, 0, -65546, 13, 0, -65545, 13, 0, -65544, 13, 0, -65543, 13, 0, -65542, 3, 0, -65541, 14, 0, -65540, 14, 0, -65539, 14, 0, -65538, 14, 0, -65537, 14, 0, -131072, 14, 0, -131071, 14, 0, -131070, 14, 0, -131069, 14, 0, -131068, 14, 0, -131067, 14, 0, -131066, 14, 0, -131065, 14, 0, -131064, 14, 0, -131063, 14, 0, -131062, 14, 0, -131061, 14, 0, -131060, 14, 0, -131059, 14, 0, -131058, 14, 0, -131057, 14, 0, -131056, 14, 0, -131055, 14, 0, -131054, 14, 0, -131053, 14, 0, -11, 3, 0, -10, 13, 0, -9, 13, 0, -8, 13, 0, -7, 13, 0, -6, 3, 0, -5, 14, 0, -4, 13, 0, -3, 13, 0, -2, 13, 0, -1, 13, 0, -65536, 14, 0, -65535, 14, 0, -65534, 14, 0, -65533, 13, 0, -65532, 49, 0, -65531, 14, 0, -65530, 14, 0, -65529, 13, 0, -65528, 48, 0, -65527, 14, 0, -65526, 14, 0, -65525, 13, 0, -65524, 49, 0, -65523, 14, 0, -65522, 14, 0, -65521, 13, 0, -65520, 13, 0, -65519, 14, 0, -65518, 14, 0, -65517, 14, 0, 65525, 3, 0, 65526, 13, 0, 65527, 13, 0, 65528, 13, 0, 65529, 28, 0, 65530, 3, 0, 65531, 14, 0, 65532, 14, 0, 65533, 13, 0, 65534, 14, 0, 65535, 14, 0, 0, 14, 0, 1, 13, 0, 2, 14, 0, 3, 14, 0, 4, 14, 0, 5, 13, 0, 6, 14, 0, 7, 14, 0, 8, 14, 0, 9, 13, 0, 10, 14, 0, 11, 14, 0, 12, 14, 0, 13, 13, 0, 14, 14, 0, 15, 14, 0, 16, 14, 0, 131061, 3, 0, 131062, 28, 0, 131063, 13, 0, 131064, 13, 0, 131065, 13, 0, 131066, 11, 0, 131067, 1, 0, 131068, 2, 0, 131069, 14, 0, 131070, 14, 0, 131071, 14, 0, 65536, 13, 0, 65537, 14, 0, 65538, 14, 0, 65539, 14, 0, 65540, 14, 0, 65541, 14, 0, 65542, 14, 0, 65543, 14, 0, 65544, 14, 0, 65545, 14, 0, 65546, 14, 0, 65547, 14, 0, 65548, 14, 0, 65549, 14, 0, 65550, 14, 0, 65551, 14, 0, 65552, 14, 0, 196597, 3, 0, 196598, 13, 0, 196599, 13, 0, 196600, 13, 0, 196601, 13, 0, 196602, 14, 0, 196603, 14, 0, 196604, 11, 0, 196605, 14, 0, 196606, 14, 0, 196607, 14, 0, 131072, 14, 0, 131073, 14, 0, 131074, 13, 0, 131075, 14, 0, 131076, 13, 0, 131077, 14, 0, 131078, 14, 0, 131079, 13, 0, 131080, 14, 0, 131081, 14, 0, 131082, 14, 0, 131083, 13, 0, 131084, 14, 0, 131085, 13, 0, 131086, 14, 0, 131087, 14, 0, 131088, 14, 0, 262133, 13, 0, 262134, 13, 0, 262135, 13, 0, 262136, 13, 0, 262137, 13, 0, 262138, 13, 0, 262139, 13, 0, 262140, 13, 0, 262141, 14, 0, 262142, 14, 0, 262143, 14, 0, 196608, 13, 0, 196609, 14, 0, 196610, 14, 0, 196611, 14, 0, 196612, 14, 0, 196613, 14, 0, 196614, 14, 0, 196615, 13, 0, 196616, 14, 0, 196617, 14, 0, 196618, 14, 0, 196619, 14, 0, 196620, 14, 0, 196621, 14, 0, 327669, 14, 0, 327670, 13, 0, 327671, 13, 0, 327672, 13, 0, 327673, 14, 0, 327674, 14, 0, 327675, 14, 0, 327676, 14, 0, 327677, 13, 0, 327678, 13, 0, 327679, 13, 0, 262144, 14, 0, 262145, 13, 0, 262146, 14, 0, 262147, 13, 0, 262148, 14, 0, 262149, 14, 0, 262150, 14, 0, 262151, 14, 0, 262152, 14, 0, 262153, 14, 0, 262154, 14, 0, 262155, 14, 0, 262156, 14, 0, 262157, 14, 0, 393204, 14, 0, 393205, 14, 0, 393206, 48, 0, 393207, 13, 0, 393208, 14, 0, 393209, 48, 0, 393210, 13, 0, 393211, 14, 0, 393212, 14, 0, 393213, 14, 0, 393214, 14, 0, 393215, 14, 0, 327680, 14, 0, 327681, 14, 0, 327682, 14, 0, 327683, 14, 0, 327684, 14, 0, 327685, 14, 0, 327686, 14, 0, 327687, 14, 0, 327688, 14, 0, 327689, 14, 0, 327690, 14, 0, 327691, 14, 0, 327692, 14, 0, 327693, 14, 0, 458740, 14, 0, 458741, 13, 0, 458742, 14, 0, 458743, 14, 0, 458744, 13, 0, 458745, 13, 0, 458746, 14, 0, 458747, 14, 0, 458748, 14, 0, 458749, 14, 0, 458750, 14, 0, 458751, 13, 0, 393216, 14, 0, 393217, 14, 0, 393218, 13, 0, 393219, 14, 0, 393220, 14, 0, 393221, 14, 0, 393222, 13, 0, 393223, 14, 0, 524276, 13, 0, 524277, 29, 0, 524283, 14, 0, 524284, 13, 0, 524285, 14, 0, 524286, 14, 0, 524287, 14, 0, 458752, 14, 0, 458753, 14, 0, 458754, 14, 0, 458755, 14, 0, 458756, 14, 0, 458757, 14, 0, 458758, 14, 0, 458759, 14, 0, 589812, 13, 0, 589813, 14, 0, 655348, 29, 0, 655349, 13, 0, 720880, 14, 0, 720881, 14, 0, 720882, 14, 0, 720883, 14, 0, 720884, 14, 0, 720885, 14, 0, 786416, 14, 0, 786417, 49, 0, 786418, 14, 0, 786419, 14, 0, 786420, 14, 0, 786421, 28, 0, 851952, 14, 0, 851953, 14, 0, 851954, 14, 0, 851955, 13, 0, 851956, 14, 0, 851957, 14, 0, 917488, 14, 0, 917489, 14, 0, 917490, 13, 0, 917491, 14, 0 )
_sections_unfolded = [ "Cell", "Collision", "Transform" ]
__meta__ = {
"_edit_lock_": true
}

[node name="foreground" type="TileMap" parent="." index="1"]

scale = Vector2( 8, 8 )
mode = 0
tile_set = ExtResource( 1 )
cell_size = Vector2( 8, 8 )
cell_quadrant_size = 16
cell_custom_transform = Transform2D( 1, 0, 0, 1, 0, 0 )
cell_half_offset = 2
cell_tile_origin = 0
cell_y_sort = false
cell_clip_uv = false
collision_use_kinematic = false
collision_friction = 1.0
collision_bounce = 0.0
collision_layer = 1
collision_mask = 0
occluder_light_mask = 1
format = 1
tile_data = PoolIntArray( -1114105, 13, 0, -1114104, 13, 0, -1114103, 13, 0, -1114102, 13, 0, -1114101, 13, 0, -1114100, 13, 0, -1114099, 13, 0, -1048556, 7, 0, -983020, 7, 0, -851972, 3, 0, -917484, 7, 0, -786436, 3, 0, -851961, 28, 0, -851960, 29, 0, -851959, 29, 0, -851958, 29, 0, -851957, 29, 0, -851956, 29, 0, -851955, 30, 0, -851948, 6, 0, -851947, 5, 0, -851946, 5, 0, -851945, 5, 0, -851944, 5, 0, -851943, 5, 0, -851942, 5, 0, -851941, 9, 0, -720900, 3, 0, -786427, 28, 0, -786417, 28, 0, -786405, 7, 0, -655364, 3, 0, -720893, 28, 0, -720879, 28, 0, -720869, 7, 0, -589828, 3, 0, -655359, 28, 0, -655357, 536870955, 0, -655356, 536870955, 0, -655341, 28, 0, -655333, 7, 0, -524292, 3, 0, -589822, 47, 0, -589821, 536870955, 0, -589820, 536870955, 0, -589819, 536870959, 0, -589818, 536870956, 0, -589814, 536870956, 0, -589800, 40, 0, -589797, 7, 0, -458756, 3, 0, -524287, 1, 0, -524286, 1, 0, -524285, 1, 0, -524284, 1, 0, -524283, 1, 0, -524282, 1, 0, -524281, 1, 0, -524280, 1, 0, -524279, 1, 0, -524278, 1, 0, -524277, 1, 0, -524276, 1, 0, -524275, 1, 0, -524274, 1, 0, -524273, 1, 0, -524272, 1, 0, -524271, 1, 0, -524270, 1, 0, -524269, 1, 0, -524268, 1, 0, -524267, 1, 0, -524266, 1, 0, -524265, 1, 0, -524264, 1, 0, -524263, 1, 0, -524262, 1, 0, -524261, 10, 0, -393220, 11, 0, -393219, 1, 0, -393218, 1, 0, -393217, 2, 0, -458732, 7, 0, -327681, 3, 0, -393212, 30, 0, -393204, 30, 0, -393199, 30, 0, -393196, 7, 0, -262149, 29, 0, -262148, 29, 0, -262147, 29, 0, -262146, 29, 0, -262145, 3, 0, -327679, 28, 0, -327678, 30, 0, -327670, 30, 0, -327664, 30, 0, -327660, 7, 0, -196609, 3, 0, -262144, 536870957, 0, -262138, 43, 0, -262137, 43, 0, -262124, 7, 0, -131077, 29, 0, -131076, 29, 0, -131075, 29, 0, -131074, 29, 0, -131073, 11, 0, -196608, 1, 0, -196607, 1, 0, -196606, 1, 0, -196605, 1, 0, -196604, 1, 0, -196603, 1, 0, -196602, 1, 0, -196601, 1, 0, -196600, 1, 0, -196599, 1, 0, -196598, 1, 0, -196597, 1, 0, -196596, 1, 0, -196595, 1, 0, -196594, 1, 0, -196593, 1, 0, -196592, 1, 0, -196591, 1, 0, -196590, 1, 0, -196588, 7, 0, -131052, 7, 0, -5, 30, 0, -3, 29, 0, -2, 30, 0, -65535, 29, 0, -65531, 29, 0, -65527, 29, 0, -65523, 29, 0, -65520, 0, 0, -65519, 1, 0, -65518, 536870913, 0, -65517, 536870913, 0, -65516, 10, 0, 65535, 29, 0, 3, 29, 0, 7, 29, 0, 11, 29, 0, 15, 29, 0, 16, 7, 0, 65552, 7, 0, 196605, 1, 0, 196606, 1, 0, 196607, 1, 0, 131072, 1, 0, 131073, 1, 0, 131074, 1, 0, 131075, 1, 0, 131076, 1, 0, 131077, 1, 0, 131078, 1, 0, 131079, 1, 0, 131080, 1, 0, 131081, 1, 0, 131082, 1, 0, 131083, 1, 0, 131084, 1, 0, 131085, 1, 0, 131086, 1, 0, 131087, 1, 0, 131088, 10, 0, 262132, 8, 0, 262133, 5, 0, 262134, 5, 0, 262135, 5, 0, 262136, 5, 0, 262137, 5, 0, 262138, 9, 0, 196622, 7, 0, 327667, 8, 0, 327668, 4, 0, 327674, 7, 0, 262156, 28, 0, 262157, 29, 0, 262158, 7, 0, 393203, 3, 0, 393210, 6, 0, 393211, 5, 0, 393212, 5, 0, 393213, 5, 0, 393214, 5, 0, 393215, 5, 0, 327680, 5, 0, 327681, 5, 0, 327682, 5, 0, 327683, 5, 0, 327684, 5, 0, 327685, 5, 0, 327686, 5, 0, 327690, 16, 0, 327694, 7, 0, 458739, 3, 0, 393224, 0, 0, 393225, 1, 0, 393226, 1, 0, 393227, 1, 0, 393228, 1, 0, 393229, 1, 0, 393230, 10, 0, 524275, 3, 0, 524278, 0, 0, 524279, 1, 0, 524280, 1, 0, 524281, 1, 0, 524282, 1, 0, 524283, 1, 0, 524284, 2, 0, 458754, 17, 0, 458760, 7, 0, 589811, 3, 0, 589814, 7, 0, 589820, 11, 0, 589821, 1, 0, 589822, 1, 0, 589823, 1, 0, 524288, 1, 0, 524289, 1, 0, 524290, 1, 0, 524291, 1, 0, 524292, 1, 0, 524293, 1, 0, 524294, 1, 0, 524295, 1, 0, 524296, 10, 0, 655343, 8, 0, 655344, 5, 0, 655345, 5, 0, 655346, 5, 0, 655347, 4, 0, 655350, 7, 0, 720879, 3, 0, 720886, 7, 0, 786415, 3, 0, 786422, 7, 0, 851951, 3, 0, 851958, 7, 0, 917487, 3, 0, 917492, 0, 0, 917493, 1, 0, 917494, 10, 0, 983023, 11, 0, 983024, 1, 0, 983025, 1, 0, 983026, 1, 0, 983027, 1, 0, 983028, 10, 0 )
_sections_unfolded = [ "Cell", "Collision", "Transform" ]
__meta__ = {
"_edit_lock_": true
}

[node name="goal" parent="." index="2" instance=ExtResource( 2 )]

position = Vector2( -992, 864 )

[node name="terrain" type="Node" parent="." index="3"]

[node name="spike" parent="terrain" index="0" instance=ExtResource( 3 )]

position = Vector2( -192, 64 )

[node name="spike24" parent="terrain" index="1" instance=ExtResource( 3 )]

position = Vector2( 0, -256 )

[node name="spike25" parent="terrain" index="2" instance=ExtResource( 3 )]

position = Vector2( 64, -256 )

[node name="spike26" parent="terrain" index="3" instance=ExtResource( 3 )]

position = Vector2( 128, -256 )

[node name="spike27" parent="terrain" index="4" instance=ExtResource( 3 )]

position = Vector2( 128, -256 )

[node name="spike28" parent="terrain" index="5" instance=ExtResource( 3 )]

position = Vector2( 192, -256 )

[node name="spike29" parent="terrain" index="6" instance=ExtResource( 3 )]

position = Vector2( 256, -256 )

[node name="spike30" parent="terrain" index="7" instance=ExtResource( 3 )]

position = Vector2( 320, -256 )

[node name="spike31" parent="terrain" index="8" instance=ExtResource( 3 )]

position = Vector2( 768, -256 )

[node name="spike32" parent="terrain" index="9" instance=ExtResource( 3 )]

position = Vector2( 704, -256 )

[node name="spike67" parent="terrain" index="10" instance=ExtResource( 3 )]

position = Vector2( 1088, -576 )

[node name="spike68" parent="terrain" index="11" instance=ExtResource( 3 )]

position = Vector2( 1024, -576 )

[node name="spike69" parent="terrain" index="12" instance=ExtResource( 3 )]

position = Vector2( 960, -576 )

[node name="spike70" parent="terrain" index="13" instance=ExtResource( 3 )]

position = Vector2( 928, -576 )

[node name="spike71" parent="terrain" index="14" instance=ExtResource( 3 )]

position = Vector2( 1152, -576 )

[node name="spike72" parent="terrain" index="15" instance=ExtResource( 3 )]

position = Vector2( 352, -576 )

[node name="spike73" parent="terrain" index="16" instance=ExtResource( 3 )]

position = Vector2( 288, -576 )

[node name="spike74" parent="terrain" index="17" instance=ExtResource( 3 )]

position = Vector2( 224, -576 )

[node name="spike75" parent="terrain" index="18" instance=ExtResource( 3 )]

position = Vector2( 160, -576 )

[node name="spike76" parent="terrain" index="19" instance=ExtResource( 3 )]

position = Vector2( 96, -576 )

[node name="spike77" parent="terrain" index="20" instance=ExtResource( 3 )]

position = Vector2( 96, -576 )

[node name="spike36" parent="terrain" index="21" instance=ExtResource( 3 )]

position = Vector2( 1024, -256 )

[node name="spike37" parent="terrain" index="22" instance=ExtResource( 3 )]

position = Vector2( 1088, -256 )

[node name="spike38" parent="terrain" index="23" instance=ExtResource( 3 )]

position = Vector2( 1152, -256 )

[node name="spike39" parent="terrain" index="24" instance=ExtResource( 3 )]

position = Vector2( -192, 256 )
scale = Vector2( 1, -1 )
_sections_unfolded = [ "Collision", "Transform" ]

[node name="spike40" parent="terrain" index="25" instance=ExtResource( 3 )]

position = Vector2( -192, 256 )
scale = Vector2( 1, -1 )
_sections_unfolded = [ "Collision", "Transform" ]

[node name="spike41" parent="terrain" index="26" instance=ExtResource( 3 )]

position = Vector2( -128, 256 )
scale = Vector2( 1, -1 )
_sections_unfolded = [ "Collision", "Transform" ]

[node name="spike42" parent="terrain" index="27" instance=ExtResource( 3 )]

position = Vector2( -64, 256 )
scale = Vector2( 1, -1 )
_sections_unfolded = [ "Collision", "Transform" ]

[node name="spike43" parent="terrain" index="28" instance=ExtResource( 3 )]

position = Vector2( 0, 256 )
scale = Vector2( 1, -1 )
_sections_unfolded = [ "Collision", "Transform" ]

[node name="spike44" parent="terrain" index="29" instance=ExtResource( 3 )]

position = Vector2( 64, 256 )
scale = Vector2( 1, -1 )
_sections_unfolded = [ "Collision", "Transform" ]

[node name="spike46" parent="terrain" index="30" instance=ExtResource( 3 )]

position = Vector2( 160, 256 )
scale = Vector2( 1, -1 )
_sections_unfolded = [ "Collision", "Transform" ]

[node name="spike47" parent="terrain" index="31" instance=ExtResource( 3 )]

position = Vector2( 128, 256 )
scale = Vector2( 1, -1 )
_sections_unfolded = [ "Collision", "Transform" ]

[node name="spike48" parent="terrain" index="32" instance=ExtResource( 3 )]

position = Vector2( 224, 256 )
scale = Vector2( 1, -1 )
_sections_unfolded = [ "Collision", "Transform" ]

[node name="spike49" parent="terrain" index="33" instance=ExtResource( 3 )]

position = Vector2( 288, 256 )
scale = Vector2( 1, -1 )
_sections_unfolded = [ "Collision", "Transform" ]

[node name="spike50" parent="terrain" index="34" instance=ExtResource( 3 )]

position = Vector2( 352, 256 )
scale = Vector2( 1, -1 )
_sections_unfolded = [ "Collision", "Transform" ]

[node name="spike51" parent="terrain" index="35" instance=ExtResource( 3 )]

position = Vector2( 416, 256 )
scale = Vector2( 1, -1 )
_sections_unfolded = [ "Collision", "Transform" ]

[node name="spike52" parent="terrain" index="36" instance=ExtResource( 3 )]

position = Vector2( 480, 256 )
scale = Vector2( 1, -1 )
_sections_unfolded = [ "Collision", "Transform" ]

[node name="spike53" parent="terrain" index="37" instance=ExtResource( 3 )]

position = Vector2( 544, 256 )
scale = Vector2( 1, -1 )
_sections_unfolded = [ "Collision", "Transform" ]

[node name="spike54" parent="terrain" index="38" instance=ExtResource( 3 )]

position = Vector2( 384, 448 )
scale = Vector2( 1, -1 )
_sections_unfolded = [ "Collision", "Transform" ]

[node name="spike55" parent="terrain" index="39" instance=ExtResource( 3 )]

position = Vector2( 320, 448 )
scale = Vector2( 1, -1 )
_sections_unfolded = [ "Collision", "Transform" ]

[node name="spike56" parent="terrain" index="40" instance=ExtResource( 3 )]

position = Vector2( 256, 448 )
scale = Vector2( 1, -1 )
_sections_unfolded = [ "Collision", "Transform" ]

[node name="spike57" parent="terrain" index="41" instance=ExtResource( 3 )]

position = Vector2( 192, 448 )
scale = Vector2( 1, -1 )
_sections_unfolded = [ "Collision", "Transform" ]

[node name="spike58" parent="terrain" index="42" instance=ExtResource( 3 )]

position = Vector2( 128, 448 )
scale = Vector2( 1, -1 )
_sections_unfolded = [ "Collision", "Transform" ]

[node name="spike59" parent="terrain" index="43" instance=ExtResource( 3 )]

position = Vector2( 64, 448 )
scale = Vector2( 1, -1 )
_sections_unfolded = [ "Collision", "Transform" ]

[node name="spike60" parent="terrain" index="44" instance=ExtResource( 3 )]

position = Vector2( 0, 448 )
scale = Vector2( 1, -1 )
_sections_unfolded = [ "Collision", "Transform" ]

[node name="spike61" parent="terrain" index="45" instance=ExtResource( 3 )]

position = Vector2( -64, 448 )
scale = Vector2( 1, -1 )
_sections_unfolded = [ "Collision", "Transform" ]

[node name="spike62" parent="terrain" index="46" instance=ExtResource( 3 )]

position = Vector2( -128, 448 )
scale = Vector2( 1, -1 )
_sections_unfolded = [ "Collision", "Transform" ]

[node name="spike63" parent="terrain" index="47" instance=ExtResource( 3 )]

position = Vector2( -128, 448 )
scale = Vector2( 1, -1 )
_sections_unfolded = [ "Collision", "Transform" ]

[node name="spike2" parent="terrain" index="48" instance=ExtResource( 3 )]

position = Vector2( -128, 64 )

[node name="spike3" parent="terrain" index="49" instance=ExtResource( 3 )]

position = Vector2( -64, 64 )

[node name="spike4" parent="terrain" index="50" instance=ExtResource( 3 )]

position = Vector2( 0, 64 )

[node name="spike5" parent="terrain" index="51" instance=ExtResource( 3 )]

position = Vector2( 64, 64 )

[node name="spike6" parent="terrain" index="52" instance=ExtResource( 3 )]

position = Vector2( 128, 64 )

[node name="spike7" parent="terrain" index="53" instance=ExtResource( 3 )]

position = Vector2( 192, 64 )

[node name="spike8" parent="terrain" index="54" instance=ExtResource( 3 )]

position = Vector2( 256, 64 )

[node name="spike9" parent="terrain" index="55" instance=ExtResource( 3 )]

position = Vector2( 320, 64 )

[node name="spike10" parent="terrain" index="56" instance=ExtResource( 3 )]

position = Vector2( 384, 64 )

[node name="spike11" parent="terrain" index="57" instance=ExtResource( 3 )]

position = Vector2( 448, 64 )

[node name="spike12" parent="terrain" index="58" instance=ExtResource( 3 )]

position = Vector2( 512, 64 )

[node name="spike13" parent="terrain" index="59" instance=ExtResource( 3 )]

position = Vector2( 576, 64 )

[node name="spike14" parent="terrain" index="60" instance=ExtResource( 3 )]

position = Vector2( 640, 64 )

[node name="spike15" parent="terrain" index="61" instance=ExtResource( 3 )]

position = Vector2( 704, 64 )

[node name="spike16" parent="terrain" index="62" instance=ExtResource( 3 )]

position = Vector2( 768, 64 )

[node name="spike17" parent="terrain" index="63" instance=ExtResource( 3 )]

position = Vector2( 832, 64 )

[node name="spike18" parent="terrain" index="64" instance=ExtResource( 3 )]

position = Vector2( 896, 64 )

[node name="spike19" parent="terrain" index="65" instance=ExtResource( 3 )]

position = Vector2( 960, 64 )

[node name="spike20" parent="terrain" index="66" instance=ExtResource( 4 )]

position = Vector2( -640, 128 )

[node name="spike21" parent="terrain" index="67" instance=ExtResource( 4 )]

position = Vector2( -576, 128 )

[node name="spike22" parent="terrain" index="68" instance=ExtResource( 4 )]

position = Vector2( -512, 128 )

[node name="spike64" parent="terrain" index="69" instance=ExtResource( 4 )]

position = Vector2( -832, 832 )

[node name="spike65" parent="terrain" index="70" instance=ExtResource( 4 )]

position = Vector2( -896, 832 )

[node name="spike66" parent="terrain" index="71" instance=ExtResource( 4 )]

position = Vector2( -960, 832 )

[node name="torch" parent="terrain" index="72" instance=ExtResource( 5 )]

position = Vector2( -928, 736 )

[node name="torch2" parent="terrain" index="73" instance=ExtResource( 5 )]

position = Vector2( -608, 352 )

[node name="torch3" parent="terrain" index="74" instance=ExtResource( 5 )]

position = Vector2( -416, 352 )

[node name="torch4" parent="terrain" index="75" instance=ExtResource( 5 )]

position = Vector2( 288, -32 )

[node name="torch5" parent="terrain" index="76" instance=ExtResource( 5 )]

position = Vector2( 544, -32 )

[node name="torch6" parent="terrain" index="77" instance=ExtResource( 5 )]

position = Vector2( 800, -32 )

[node name="torch7" parent="terrain" index="78" instance=ExtResource( 5 )]

position = Vector2( 1408, -640 )

[node name="coins" type="Node" parent="." index="4"]

[node name="coin3" parent="coins" index="0" instance=ExtResource( 6 )]

position = Vector2( -88, 480 )

[node name="coin4" parent="coins" index="1" instance=ExtResource( 6 )]

position = Vector2( -160, 480 )

[node name="coin6" parent="coins" index="2" instance=ExtResource( 6 )]

position = Vector2( 600, -224 )

[node name="coin7" parent="coins" index="3" instance=ExtResource( 6 )]

position = Vector2( 672, -224 )

[node name="coin24" parent="coins" index="4" instance=ExtResource( 6 )]

position = Vector2( 800, -416 )

[node name="coin8" parent="coins" index="5" instance=ExtResource( 6 )]

position = Vector2( 544, -224 )

[node name="coin25" parent="coins" index="6" instance=ExtResource( 6 )]

position = Vector2( 672, -352 )

[node name="coin26" parent="coins" index="7" instance=ExtResource( 6 )]

position = Vector2( 288, -416 )

[node name="coin27" parent="coins" index="8" instance=ExtResource( 6 )]

position = Vector2( 160, -352 )

[node name="coin9" parent="coins" index="9" instance=ExtResource( 6 )]

position = Vector2( -160, -480 )

[node name="coin10" parent="coins" index="10" instance=ExtResource( 6 )]

position = Vector2( -96, -480 )

[node name="coin5" parent="coins" index="11" instance=ExtResource( 6 )]

position = Vector2( -24, 480 )

[node name="coin" parent="coins" index="12" instance=ExtResource( 6 )]

position = Vector2( 672, -864 )

[node name="coin2" parent="coins" index="13" instance=ExtResource( 6 )]

position = Vector2( 736, -864 )

[node name="coin15" parent="coins" index="14" instance=ExtResource( 6 )]

position = Vector2( 544, -864 )

[node name="coin16" parent="coins" index="15" instance=ExtResource( 6 )]

position = Vector2( -608, -224 )

[node name="coin17" parent="coins" index="16" instance=ExtResource( 6 )]

position = Vector2( -544, -224 )

[node name="coin18" parent="coins" index="17" instance=ExtResource( 6 )]

position = Vector2( -416, -32 )

[node name="coin20" parent="coins" index="18" instance=ExtResource( 6 )]

position = Vector2( 608, -96 )

[node name="coin21" parent="coins" index="19" instance=ExtResource( 6 )]

position = Vector2( 352, -96 )

[node name="coin22" parent="coins" index="20" instance=ExtResource( 6 )]

position = Vector2( 96, -96 )

[node name="coin23" parent="coins" index="21" instance=ExtResource( 6 )]

position = Vector2( -160, -96 )

[node name="coin19" parent="coins" index="22" instance=ExtResource( 6 )]

position = Vector2( -608, 32 )

[node name="projectiles" type="Node" parent="." index="5"]

[node name="characters" type="Node" parent="." index="6"]

[node name="goblin_solider2" parent="characters" index="0" instance=ExtResource( 7 )]

position = Vector2( -30.7722, 282.495 )

[node name="goblin_solider15" parent="characters" index="1" instance=ExtResource( 7 )]

position = Vector2( 64, 288 )

[node name="goblin_solider10" parent="characters" index="2" instance=ExtResource( 7 )]

position = Vector2( -138.253, 279.798 )

[node name="goblin_solider8" parent="characters" index="3" instance=ExtResource( 7 )]

position = Vector2( -192, -224 )

[node name="goblin_solider14" parent="characters" index="4" instance=ExtResource( 7 )]

position = Vector2( 384, 64 )

[node name="goblin_solider13" parent="characters" index="5" instance=ExtResource( 7 )]

position = Vector2( 192, 64 )

[node name="goblin_solider11" parent="characters" index="6" instance=ExtResource( 7 )]

position = Vector2( -192, -352 )

[node name="goblin_solider12" parent="characters" index="7" instance=ExtResource( 7 )]

position = Vector2( 544, -256 )

[node name="goblin_solider9" parent="characters" index="8" instance=ExtResource( 7 )]

position = Vector2( 288, -256 )

[node name="goblin_solider3" parent="characters" index="9" instance=ExtResource( 7 )]

position = Vector2( 599.375, -886.678 )

[node name="goblin_solider4" parent="characters" index="10" instance=ExtResource( 7 )]

position = Vector2( 802.999, 348.001 )

[node name="goblin_solider16" parent="characters" index="11" instance=ExtResource( 7 )]

position = Vector2( 864, 352 )

[node name="goblin_archer2" parent="characters" index="12" instance=ExtResource( 8 )]

position = Vector2( 361.761, -808.273 )

[node name="goblin_archer3" parent="characters" index="13" instance=ExtResource( 8 )]

position = Vector2( 230.681, -741.011 )

[node name="goblin_archer10" parent="characters" index="14" instance=ExtResource( 8 )]

position = Vector2( 102.681, -692.042 )

[node name="goblin_archer9" parent="characters" index="15" instance=ExtResource( 8 )]

position = Vector2( 1056, -352 )

[node name="goblin_archer4" parent="characters" index="16" instance=ExtResource( 8 )]

position = Vector2( 832, 224 )

[node name="goblin_archer5" parent="characters" index="17" instance=ExtResource( 8 )]

position = Vector2( -288, -96 )

[node name="goblin_archer7" parent="characters" index="18" instance=ExtResource( 8 )]

position = Vector2( -32, -32 )

[node name="goblin_archer6" parent="characters" index="19" instance=ExtResource( 8 )]

position = Vector2( -256, 416 )

[node name="goblin_archer8" parent="characters" index="20" instance=ExtResource( 8 )]

position = Vector2( -672, 416 )

[node name="goblin_solider5" parent="characters" index="21" instance=ExtResource( 7 )]

position = Vector2( 64, 480 )

[node name="goblin_solider6" parent="characters" index="22" instance=ExtResource( 7 )]

position = Vector2( 1216, -544 )

[node name="goblin_solider7" parent="characters" index="23" instance=ExtResource( 7 )]

position = Vector2( 768, -544 )

[node name="player" parent="characters" index="24" instance=ExtResource( 9 )]

position = Vector2( 1664, -608 )

[node name="particles" type="Node" parent="." index="7"]

script = ExtResource( 10 )


