[gd_scene format=2]

[node name="collider" type="StaticBody2D"]

input_pickable = false
collision_layer = 1
collision_mask = 1
constant_linear_velocity = Vector2( 0, 0 )
constant_angular_velocity = 0.0
friction = 1.0
bounce = 0.0

[node name="hitbox" type="CollisionPolygon2D" parent="." index="0"]

build_mode = 0
polygon = PoolVector2Array( 0, 0, 8, 0, 8, 8, 0, 8 )
one_way_collision = true
_sections_unfolded = [ "Transform" ]


