[gd_resource type="GradientTexture" load_steps=2 format=2]

[sub_resource type="Gradient" id=2]

offsets = PoolRealArray( 0, 1 )
colors = PoolColorArray( 0.113281, 0.376526, 1, 1, 0, 0.871094, 0.789429, 0.862745 )

[resource]

flags = 4
gradient = SubResource( 2 )
width = 2048

