[gd_scene load_steps=2 format=2]

[ext_resource path="res://images/heart_ui.atlastex" type="Texture" id=1]

[node name="icon_heart" type="TextureRect"]

anchor_left = 0.0
anchor_top = 0.0
anchor_right = 0.0
anchor_bottom = 0.0
margin_right = 42.0
margin_bottom = 42.0
rect_min_size = Vector2( 42, 42 )
rect_pivot_offset = Vector2( 0, 0 )
rect_clip_content = false
mouse_filter = 1
mouse_default_cursor_shape = 0
size_flags_horizontal = 1
size_flags_vertical = 1
texture = ExtResource( 1 )
expand = true
stretch_mode = 5
_sections_unfolded = [ "Material", "Rect", "Visibility" ]


